…
In this milestone, the data from **cancer_samples** will be analyzed
more in depth, trying to use different tools to answer the questions
proposed. As stated in the previous milestone, the data contained in
this set are variables that describe characteristics of the cell nuclei
in tumors (both benign and malign).

``` r
#From this data set, we can see that it is tidy as every column is  a variable describing different nucleus characteristics, and every row is a unique observation for a unique sample that has its own identifier in the ID column. Variables are either numeric or character-defined but they are not mixed. 
#8 columns from the cancer_sample file were chosen to create a new tibble from it and prove that the data is tidy
tidy_cancer_data<-cancer_sample%>%
select(diagnosis, radius_mean, texture_mean, perimeter_mean, area_mean, smoothness_mean, symmetry_mean, concavity_mean)
tidy_cancer_data
```

    ## # A tibble: 569 × 8
    ##    diagnosis radius_mean texture_mean perimete…¹ area_…² smoot…³ symme…⁴ conca…⁵
    ##    <chr>           <dbl>        <dbl>      <dbl>   <dbl>   <dbl>   <dbl>   <dbl>
    ##  1 M                18.0         10.4      123.    1001   0.118    0.242  0.300 
    ##  2 M                20.6         17.8      133.    1326   0.0847   0.181  0.0869
    ##  3 M                19.7         21.2      130     1203   0.110    0.207  0.197 
    ##  4 M                11.4         20.4       77.6    386.  0.142    0.260  0.241 
    ##  5 M                20.3         14.3      135.    1297   0.100    0.181  0.198 
    ##  6 M                12.4         15.7       82.6    477.  0.128    0.209  0.158 
    ##  7 M                18.2         20.0      120.    1040   0.0946   0.179  0.113 
    ##  8 M                13.7         20.8       90.2    578.  0.119    0.220  0.0937
    ##  9 M                13           21.8       87.5    520.  0.127    0.235  0.186 
    ## 10 M                12.5         24.0       84.0    476.  0.119    0.203  0.227 
    ## # … with 559 more rows, and abbreviated variable names ¹​perimeter_mean,
    ## #   ²​area_mean, ³​smoothness_mean, ⁴​symmetry_mean, ⁵​concavity_mean
…
``` r
#A tibble that divided the concavity values into levels was created. This levels for concavity were labeled as: none(likely benign), normal, high, and very high (likely malignant), according to their numerical values.
concavity_char<-concavity  %>%
     mutate(concavity_level = case_when (concavity_value ==0 ~  "none", 
                                   concavity_value <0.1 ~  "normal", 
                                   concavity_value <0.2 ~  "high", 
                                   TRUE ~ "very high"))
concavity_char
```

    ## # A tibble: 569 × 3
    ##    diagnosis concavity_value concavity_level
    ##    <chr>               <dbl> <chr>          
    ##  1 B                       0 none           
    ##  2 B                       0 none           
    ##  3 B                       0 none           
    ##  4 B                       0 none           
    ##  5 B                       0 none           
    ##  6 B                       0 none           
    ##  7 B                       0 none           
    ##  8 B                       0 none           
    ##  9 B                       0 none           
    ## 10 B                       0 none           
    ## # … with 559 more rows
…
``` r
#The fct_collapse was used to group some of the levels created previously together.
conc_collapse <- concavity_char %>%
mutate(concavity_level = fct_collapse(concavity_level, normal =c("none","normal"))) %>%
mutate(concavity_level= fct_inorder(concavity_level))
print(conc_collapse)
```

    ## # A tibble: 569 × 3
    ##    diagnosis concavity_value concavity_level
    ##    <chr>               <dbl> <fct>          
    ##  1 B                       0 normal         
    ##  2 B                       0 normal         
    ##  3 B                       0 normal         
    ##  4 B                       0 normal         
    ##  5 B                       0 normal         
    ##  6 B                       0 normal         
    ##  7 B                       0 normal         
    ##  8 B                       0 normal         
    ##  9 B                       0 normal         
    ## 10 B                       0 normal         
    ## # … with 559 more rows
…
``` r
#A tibble was created to simplify the way to access the data I was interested in (perimeter and area mean). These observations were arranged in ascending order according to their area values, and only malign tumors were taken into account.
area_per_data<- cancer_sample %>%
  rename(c("area"="area_mean", "perimeter"="perimeter_mean")) %>%
  select(diagnosis, area, perimeter) %>%
  arrange(area)%>%
  filter(diagnosis == "M")
area_per_data
```

    ## # A tibble: 212 × 3
    ##    diagnosis  area perimeter
    ##    <chr>     <dbl>     <dbl>
    ##  1 M          362.      73.3
    ##  2 M          371.      71.9
    ##  3 M          386.      77.6
    ##  4 M          431.      75  
    ##  5 M          432       79.0
    ##  6 M          441.      77.9
    ##  7 M          476.      84.0
    ##  8 M          477.      82.6
    ##  9 M          477.      81.2
    ## 10 M          499       82.7
    ## # … with 202 more rows
…
    ## # A tibble: 1 × 12
    ##   r.squared adj.r.squ…¹ sigma stati…²   p.value    df logLik   AIC   BIC devia…³
    ##       <dbl>       <dbl> <dbl>   <dbl>     <dbl> <dbl>  <dbl> <dbl> <dbl>   <dbl>
    ## 1     0.975       0.974  3.49   8061. 1.73e-169     1  -565. 1136. 1146.   2559.
    ## # … with 2 more variables: df.residual <int>, nobs <int>, and abbreviated
    ## #   variable names ¹​adj.r.squared, ²​statistic, ³​deviance

``` r
#The r squared and p value obtained above looked promising for the linear model.Therefore, I tested its capacity to make predictions with said model. The augment function creates dependent variable predictions using the model and residuals.
areaper_model_data_aug <-augment(area_per_model)
areaper_model_data_aug
```

    ## # A tibble: 212 × 8
    ##    perimeter  area .fitted .resid   .hat .sigma .cooksd .std.resid
    ##        <dbl> <dbl>   <dbl>  <dbl>  <dbl>  <dbl>   <dbl>      <dbl>
    ##  1      73.3  362.    79.2  -5.90 0.0180   3.47 0.0267      -1.71 
    ##  2      71.9  371.    79.8  -7.86 0.0176   3.46 0.0463      -2.27 
    ##  3      77.6  386.    80.6  -3.06 0.0170   3.49 0.00674     -0.883
    ##  4      75    431.    83.3  -8.27 0.0152   3.45 0.0440      -2.39 
    ##  5      79.0  432     83.3  -4.34 0.0152   3.49 0.0121      -1.25 
    ##  6      77.9  441.    83.8  -5.90 0.0148   3.47 0.0218      -1.70 
    ##  7      84.0  476.    85.9  -1.93 0.0136   3.50 0.00213     -0.557
    ##  8      82.6  477.    86.0  -3.40 0.0135   3.49 0.00659     -0.981
    ##  9      81.2  477.    86.0  -4.84 0.0135   3.48 0.0133      -1.40 
    ## 10      82.7  499     87.3  -4.57 0.0128   3.48 0.0112      -1.32 
    ## # … with 202 more rows
``` r
#I repeated the process but this time taking into account only the benign samples. As the model has to have the same number of observations, only samples up to 212 were selected. The dependent and independent variables were kept the same (perimeter and area respectively).
benign_data<- cancer_sample %>%
  rename(c("area"="area_mean", "perimeter"="perimeter_mean")) %>%
  select(diagnosis, area, perimeter) %>%
  arrange(area)%>%
  filter(diagnosis == "B")%>%
  slice(1:212)

#Predictions for the benign samples were created, this time for the benign tumors. 
areaper_data_aug_be <-augment(area_per_model, benign_data)
areaper_data_aug_be
```

    ## # A tibble: 212 × 9
    ##    diagnosis  area perimeter .fitted .resid   .hat .sigma .cooksd .std.resid
    ##    <chr>     <dbl>     <dbl>   <dbl>  <dbl>  <dbl>  <dbl>   <dbl>      <dbl>
    ##  1 B          144.      43.8    79.2  -35.4 0.0180   3.47 0.0267      -1.71 
    ##  2 B          170.      48.3    79.8  -31.4 0.0176   3.46 0.0463      -2.27 
    ##  3 B          179.      48.0    80.6  -32.7 0.0170   3.49 0.00674     -0.883
    ##  4 B          181       47.9    83.3  -35.4 0.0152   3.45 0.0440      -2.39 
    ##  5 B          202.      51.7    83.3  -31.6 0.0152   3.49 0.0121      -1.25 
    ##  6 B          204.      53.3    83.8  -30.6 0.0148   3.47 0.0218      -1.70 
    ##  7 B          221.      54.1    85.9  -31.8 0.0136   3.50 0.00213     -0.557
    ##  8 B          221.      54.5    86.0  -31.4 0.0135   3.49 0.00659     -0.981
    ##  9 B          222.      54.7    86.0  -31.3 0.0135   3.48 0.0133      -1.40 
    ## 10 B          224.      54.3    87.3  -32.9 0.0128   3.48 0.0112      -1.32 
    ## # … with 202 more rows
…
