…
``` r
### 3) Create a new variable based on other variables in your data (only if it makes sense)
cancer_sample%>%
  select(ID, diagnosis, area_mean, area_se)%>%
  mutate(area_variability=case_when(area_se>50~'high',
                                      area_se<50~'low'))
```

    ## # A tibble: 569 × 5
    ##          ID diagnosis area_mean area_se area_variability
    ##       <dbl> <chr>         <dbl>   <dbl> <chr>           
    ##  1   842302 M             1001    153.  high            
    ##  2   842517 M             1326     74.1 high            
    ##  3 84300903 M             1203     94.0 high            
    ##  4 84348301 M              386.    27.2 low             
    ##  5 84358402 M             1297     94.4 high            
    ##  6   843786 M              477.    27.2 low             
    ##  7   844359 M             1040     53.9 high            
    ##  8 84458202 M              578.    51.0 high            
    ##  9   844981 M              520.    24.3 low             
    ## 10 84501001 M              476.    23.9 low             
    ## # … with 559 more rows
…
``` r
cancer_sample%>%
  select(ID, diagnosis, area_mean, symmetry_mean)%>%
  mutate(sym_area_pattern=case_when(area_mean>460 & symmetry_mean<0.2 ~'increased area only',
                                      area_mean<460 & symmetry_mean>0.2~'increased symmetry only',
                                    area_mean>460 & symmetry_mean>0.2~'increased symmetry and area'))
```

    ## # A tibble: 569 × 5
    ##          ID diagnosis area_mean symmetry_mean sym_area_pattern           
    ##       <dbl> <chr>         <dbl>         <dbl> <chr>                      
    ##  1   842302 M             1001          0.242 increased symmetry and area
    ##  2   842517 M             1326          0.181 increased area only        
    ##  3 84300903 M             1203          0.207 increased symmetry and area
    ##  4 84348301 M              386.         0.260 increased symmetry only    
    ##  5 84358402 M             1297          0.181 increased area only        
    ##  6   843786 M              477.         0.209 increased symmetry and area
    ##  7   844359 M             1040          0.179 increased area only        
    ##  8 84458202 M              578.         0.220 increased symmetry and area
    ##  9   844981 M              520.         0.235 increased symmetry and area
    ## 10 84501001 M              476.         0.203 increased symmetry and area
    ## # … with 559 more rows
…
``` r
#1)Is symmetry correlated to an increased nuclei area in malign tumors?
#Summarizing: (2) Compute the number of observations for at least one of your categorical variables. Do not use the function `table()`!
sym_M <- cancer_sample %>%
  rename(c("symmetry"="symmetry_mean", "area"="area_mean")) %>%
  select(diagnosis, symmetry, area) %>%
  arrange(symmetry)%>%
  filter(diagnosis == "M")
sym_M
```

    ## # A tibble: 212 × 3
    ##    diagnosis symmetry  area
    ##    <chr>        <dbl> <dbl>
    ##  1 M            0.131  948 
    ##  2 M            0.143 1223 
    ##  3 M            0.145 1319 
    ##  4 M            0.147 1306 
    ##  5 M            0.147  929.
    ##  6 M            0.150 1682 
    ##  7 M            0.151  952.
    ##  8 M            0.153  798.
    ##  9 M            0.154  985.
    ## 10 M            0.154  999.
    ## # … with 202 more rows
…
